{
  "dependencies": {
    "apis1": {
      "resourceId": "/subscriptions/[parameters('subscriptionId')]/resourceGroups/[parameters('resourceGroupName')]/providers/Microsoft.ApiManagement/service/LearningApiapi/apis/LearningApi",
      "type": "apis.azure"
    },
    "mssql1": {
      "resourceId": "/subscriptions/[parameters('subscriptionId')]/resourcegroups/[parameters('resourceGroupName')]/providers/Microsoft.Sql/servers/dasilro/databases/Learning.Api_db",
      "type": "mssql.azure",
      "connectionId": "LearningDbContext",
      "secretStore": "AzureAppSettings"
    }
  }
}